^E:\PWR\SEM 4\PAMSI\GRA\GRA\GRA\STDAFX.CPP
E:\PWR\SEM 4\PAMSI\GRA\GRA\GRA\DEBUG\GRA.PCH
E:\PWR\SEM 4\PAMSI\GRA\GRA\GRA\DEBUG\VC140.PDB
E:\PWR\SEM 4\PAMSI\GRA\GRA\GRA\DEBUG\VC140.IDB
E:\PWR\SEM 4\PAMSI\GRA\GRA\GRA\DEBUG\STDAFX.OBJ
^E:\PWR\SEM 4\PAMSI\GRA\GRA\GRA\GRA.CPP
E:\PWR\SEM 4\PAMSI\GRA\GRA\GRA\DEBUG\VC140.PDB
E:\PWR\SEM 4\PAMSI\GRA\GRA\GRA\DEBUG\VC140.IDB
E:\PWR\SEM 4\PAMSI\GRA\GRA\GRA\DEBUG\GRA.OBJ
